Hardware/test_run_dir/Masters_should_sendread_data_to_each_Slaves_according_to_addr/AXILiteXBar.vcd
$date
2024-05-19T09:59+0000
$end
$version
0.2
$end
$comment

$end
$timescale 1ns  $end
$scope module AXILiteXBar $end
 $var wire 1 ! io_slaves_0_ar_bits_lock $end
 $var wire 1 " io_masters_0_ar_ready $end
 $var wire 2 + io_masters_0_ar_bits_burst $end
 $var wire 32 , io_slaves_0_aw_bits_addr $end
 $var wire 4 . io_slaves_0_aw_bits_cache $end
 $var wire 4 7 io_slaves_0_r_bits_id $end
 $var wire 4 9 io_masters_0_aw_bits_region $end
 $var wire 2 : io_slaves_0_aw_bits_size $end
 $var wire 32 > io_masters_0_w_bits_data $end
 $var wire 2 B io_masters_0_aw_bits_burst $end
 $var wire 4 C io_masters_0_ar_bits_region $end
 $var wire 4 I io_masters_0_w_bits_strb $end
 $var wire 4 N io_slaves_0_aw_bits_id $end
 $var wire 1 R io_slaves_0_r_valid $end
 $var wire 4 T io_slaves_0_ar_bits_cache $end
 $var wire 4 ^ io_slaves_0_w_bits_strb $end
 $var wire 1 a io_masters_0_w_valid $end
 $var wire 1 f io_masters_0_aw_bits_lock $end
 $var wire 8 h io_slaves_0_ar_bits_len $end
 $var wire 4 i io_slaves_0_ar_bits_qos $end
 $var wire 1 j io_slaves_0_aw_valid $end
 $var wire 3 m io_masters_0_ar_bits_prot $end
 $var wire 1 n io_masters_0_r_valid $end
 $var wire 8 | io_masters_0_ar_bits_len $end
 $var wire 4 } io_masters_0_ar_bits_qos $end
 $var wire 2 ~ io_masters_0_r_bits_resp $end
 $var wire 1 "$ writeBuses_0 $end
 $var wire 4 "' io_masters_0_ar_bits_id $end
 $var wire 2 "- io_slaves_0_r_bits_resp $end
 $var wire 4 ". io_masters_0_ar_bits_cache $end
 $var wire 3 "0 io_slaves_0_aw_bits_prot $end
 $var wire 2 "1 io_masters_0_ar_bits_size $end
 $var wire 1 "3 io_slaves_0_ar_valid $end
 $var wire 1 "5 clock $end
 $var wire 1 "6 io_slaves_0_b_ready $end
 $var wire 32 "7 io_masters_0_r_bits_data $end
 $var wire 1 "; writeMuxes_0 $end
 $var wire 32 "@ io_slaves_0_r_bits_data $end
 $var wire 1 "B io_masters_0_ar_valid $end
 $var wire 1 "K io_slaves_0_w_ready $end
 $var wire 1 "X io_masters_0_aw_valid $end
 $var wire 1 "` io_slaves_0_r_ready $end
 $var wire 3 "j io_slaves_0_ar_bits_prot $end
 $var wire 1 "m io_slaves_0_aw_ready $end
 $var wire 1 "n readMuxes_0 $end
 $var wire 32 "s io_masters_0_ar_bits_addr $end
 $var wire 1 "~ io_slaves_0_w_bits_last $end
 $var wire 1 #% io_masters_0_r_bits_last $end
 $var wire 3 #/ io_masters_0_aw_bits_prot $end
 $var wire 1 #2 io_masters_0_b_ready $end
 $var wire 1 #4 io_slaves_0_r_bits_last $end
 $var wire 1 #7 io_masters_0_ar_bits_lock $end
 $var wire 1 #8 io_slaves_0_b_valid $end
 $var wire 1 #9 readBuses_0 $end
 $var wire 2 #: io_slaves_0_ar_bits_burst $end
 $var wire 4 #; io_masters_0_aw_bits_id $end
 $var wire 4 #< io_masters_0_aw_bits_cache $end
 $var wire 1 #I io_masters_0_r_ready $end
 $var wire 4 #M io_slaves_0_aw_bits_region $end
 $var wire 4 #N io_masters_0_b_bits_id $end
 $var wire 2 #O io_masters_0_aw_bits_size $end
 $var wire 32 #Q io_masters_0_aw_bits_addr $end
 $var wire 4 #U io_slaves_0_ar_bits_region $end
 $var wire 4 #V io_slaves_0_ar_bits_id $end
 $var wire 2 #Y io_slaves_0_ar_bits_size $end
 $var wire 1 #\ reset $end
 $var wire 1 #_ io_slaves_0_aw_bits_lock $end
 $var wire 1 #` io_masters_0_w_ready $end
 $var wire 1 #c io_masters_0_w_bits_last $end
 $var wire 1 #n io_slaves_0_ar_ready $end
 $var wire 8 #{ io_masters_0_aw_bits_len $end
 $var wire 4 #| io_masters_0_aw_bits_qos $end
 $var wire 1 $$ io_masters_0_b_valid $end
 $var wire 2 $% io_slaves_0_b_bits_resp $end
 $var wire 4 $) io_slaves_0_aw_bits_qos $end
 $var wire 8 $* io_slaves_0_aw_bits_len $end
 $var wire 2 $, io_slaves_0_aw_bits_burst $end
 $var wire 1 $0 io_masters_0_aw_ready $end
 $var wire 32 $1 io_slaves_0_w_bits_data $end
 $var wire 32 $3 io_slaves_0_ar_bits_addr $end
 $var wire 1 $4 io_slaves_0_w_valid $end
 $var wire 4 $7 io_slaves_0_b_bits_id $end
 $var wire 4 $8 io_masters_0_r_bits_id $end
 $var wire 2 $9 io_masters_0_b_bits_resp $end
  $scope module readMuxes_0.arbiter $end
  $upscope $end
  $scope module readBuses_0 $end
   $var wire 4 1 io_slave_0_readAddr_bits_id $end
   $var wire 3 = io_slave_0_readAddr_bits_prot $end
   $var wire 2 E io_slave_0_readAddr_bits_burst $end
   $var wire 1 K io_master_readAddr_valid $end
   $var wire 1 S io_slave_0_readData_valid $end
   $var wire 4 Z read_addr_reg_id $end
   $var wire 4 ] io_master_readAddr_bits_id $end
   $var wire 1 b outstanding $end
   $var wire 2 c io_master_readAddr_bits_size $end
   $var wire 2 v io_slave_0_readData_bits_resp $end
   $var wire 1 "( io_master_readData_ready $end
   $var wire 4 "* io_master_readData_bits_id $end
   $var wire 32 "8 io_slave_0_readData_bits_data $end
   $var wire 1 "= io_master_readData_bits_last $end
   $var wire 3 "D read_addr_reg_size $end
   $var wire 4 "I io_slave_0_readAddr_bits_region $end
   $var wire 1 "V reset $end
   $var wire 8 "c io_slave_0_readAddr_bits_len $end
   $var wire 4 "d io_slave_0_readAddr_bits_qos $end
   $var wire 4 "o io_slave_0_readAddr_bits_cache $end
   $var wire 1 #! read_addr_reg_valid $end
   $var wire 1 #" io_master_readAddr_ready $end
   $var wire 1 ## io_slave_0_readData_bits_last $end
   $var wire 2 #$ io_master_readData_bits_resp $end
   $var wire 1 #, io_slave_0_readAddr_bits_lock $end
   $var wire 1 #3 io_master_readData_valid $end
   $var wire 32 #? io_master_readData_bits_data $end
   $var wire 1 #B io_slave_0_readAddr_valid $end
   $var wire 32 #H read_addr_reg $end
   $var wire 32 #W io_master_readAddr_bits_addr $end
   $var wire 1 #d io_slave_0_readAddr_ready $end
   $var wire 1 #o clock $end
   $var wire 2 #v io_slave_0_readAddr_bits_size $end
   $var wire 1 $" io_slave_0_readData_ready $end
   $var wire 4 $5 io_slave_0_readData_bits_id $end
   $var wire 32 $6 io_slave_0_readAddr_bits_addr $end
  $upscope $end
  $scope module writeMuxes_0 $end
   $var wire 4 # io_in_0_writeData_bits_strb $end
   $var wire 3 $ address_reg_prot $end
   $var wire 4 & io_out_writeAddr_bits_region $end
   $var wire 1 3 outstanding $end
   $var wire 1 5 io_out_writeResp_ready $end
   $var wire 1 ; mask_0 $end
   $var wire 4 ? address_reg_region $end
   $var wire 1 A io_out_writeAddr_bits_lock $end
   $var wire 4 G data_reg_strb $end
   $var wire 4 H io_out_writeAddr_bits_id $end
   $var wire 32 L io_in_0_writeData_bits_data $end
   $var wire 3 Q io_in_0_writeAddr_bits_prot $end
   $var wire 2 W resp_reg_resp $end
   $var wire 2 X io_out_writeAddr_bits_burst $end
   $var wire 1 Y w_determined $end
   $var wire 4 \ io_in_0_writeResp_bits_id $end
   $var wire 1 e reset $end
   $var wire 1 g clock $end
   $var wire 1 k io_in_0_writeData_ready $end
   $var wire 2 p io_in_0_writeAddr_bits_burst $end
   $var wire 1 t arbiter $end
   $var wire 2 "! address_reg_size $end
   $var wire 32 "# address_reg_addr $end
   $var wire 32 "& io_out_writeData_bits_data $end
   $var wire 2 ", state $end
   $var wire 1 "/ io_in_0_writeResp_valid $end
   $var wire 1 "2 io_out_writeAddr_ready $end
   $var wire 1 ": io_out_writeData_ready $end
   $var wire 4 "> io_out_writeData_bits_strb $end
   $var wire 4 "? address_reg_cache $end
   $var wire 4 "A io_in_0_writeAddr_bits_region $end
   $var wire 1 "C aw_determined $end
   $var wire 8 "M address_reg_len $end
   $var wire 4 "N address_reg_qos $end
   $var wire 4 "T io_out_writeAddr_bits_qos $end
   $var wire 8 "U io_out_writeAddr_bits_len $end
   $var wire 4 "Y io_in_0_writeAddr_bits_id $end
   $var wire 3 "] io_out_writeAddr_bits_prot $end
   $var wire 1 "e io_in_0_writeData_bits_last $end
   $var wire 1 "g address_reg_lock $end
   $var wire 2 "l io_out_writeAddr_bits_size $end
   $var wire 1 "p io_in_0_writeAddr_bits_lock $end
   $var wire 1 "r data_reg_last $end
   $var wire 1 #' io_in_0_writeResp_ready $end
   $var wire 1 #) io_in_0_writeAddr_ready $end
   $var wire 32 #. io_out_writeAddr_bits_addr $end
   $var wire 1 #5 io_out_writeAddr_valid $end
   $var wire 4 #6 resp_reg_id $end
   $var wire 4 #> io_out_writeAddr_bits_cache $end
   $var wire 1 #A io_out_writeResp_valid $end
   $var wire 4 #F address_reg_id $end
   $var wire 32 #K data_reg_data $end
   $var wire 32 #T io_in_0_writeAddr_bits_addr $end
   $var wire 2 #X io_in_0_writeAddr_bits_size $end
   $var wire 4 #[ io_out_writeResp_bits_id $end
   $var wire 4 #a io_in_0_writeAddr_bits_qos $end
   $var wire 8 #b io_in_0_writeAddr_bits_len $end
   $var wire 1 #f io_out_writeData_valid $end
   $var wire 1 #h io_in_0_writeData_valid $end
   $var wire 4 #q io_in_0_writeAddr_bits_cache $end
   $var wire 2 #u io_out_writeResp_bits_resp $end
   $var wire 1 #z io_out_writeData_bits_last $end
   $var wire 1 $& io_in_0_writeAddr_valid $end
   $var wire 2 $( address_reg_burst $end
   $var wire 2 $- io_in_0_writeResp_bits_resp $end
    $scope module arbiter $end
     $var wire 1 2 grantMask_0 $end
     $var wire 1 6 io_in_0_ready $end
     $var wire 1 8 ctrl_1 $end
     $var wire 1 "R io_in_0_valid $end
     $var wire 1 #L io_out_valid $end
     $var wire 1 #S io_out_ready $end
     $var wire 1 #Z validMask_0 $end
    $upscope $end
  $upscope $end
  $scope module writeBuses_0 $end
   $var wire 1 ( io_master_writeData_ready $end
   $var wire 1 ) io_master_writeAddr_valid $end
   $var wire 4 * io_master_writeAddr_bits_id $end
   $var wire 32 - io_slave_0_writeData_bits_data $end
   $var wire 4 / io_slave_0_writeAddr_bits_cache $end
   $var wire 1 4 write_addr_reg_valid $end
   $var wire 2 < io_master_writeResp_bits_resp $end
   $var wire 4 D write_data_reg_strb $end
   $var wire 1 M io_slave_0_writeResp_ready $end
   $var wire 4 O write_resp_reg_id $end
   $var wire 4 P io_slave_0_writeData_bits_strb $end
   $var wire 1 d io_slave_0_writeAddr_ready $end
   $var wire 1 l io_slave_0_writeAddr_bits_lock $end
   $var wire 4 o io_slave_0_writeAddr_bits_id $end
   $var wire 2 q io_slave_0_writeResp_bits_resp $end
   $var wire 1 r reset $end
   $var wire 1 s io_master_writeResp_ready $end
   $var wire 32 w io_master_writeAddr_bits_addr $end
   $var wire 2 x io_master_writeAddr_bits_size $end
   $var wire 1 "" io_slave_0_writeData_bits_last $end
   $var wire 1 ") io_slave_0_writeResp_valid $end
   $var wire 1 "+ write_resp_reg_valid $end
   $var wire 4 "F io_slave_0_writeResp_bits_id $end
   $var wire 4 "L write_resp_reg $end
   $var wire 32 "P write_addr_reg $end
   $var wire 1 "S io_master_writeAddr_ready $end
   $var wire 32 "W write_data_reg $end
   $var wire 1 "Z b_outstanding $end
   $var wire 1 "\ aw_outstanding $end
   $var wire 4 "a io_slave_0_writeAddr_bits_qos $end
   $var wire 8 "b io_slave_0_writeAddr_bits_len $end
   $var wire 32 "f io_slave_0_writeAddr_bits_addr $end
   $var wire 4 "t io_master_writeData_bits_strb $end
   $var wire 2 "v io_slave_0_writeAddr_bits_size $end
   $var wire 1 "w io_master_writeData_valid $end
   $var wire 1 #- write_data_reg_last $end
   $var wire 32 #0 io_master_writeData_bits_data $end
   $var wire 4 #1 io_slave_0_writeAddr_bits_region $end
   $var wire 1 #@ io_slave_0_writeData_ready $end
   $var wire 4 #P write_addr_reg_id $end
   $var wire 1 #R io_master_writeResp_valid $end
   $var wire 1 #m io_slave_0_writeData_valid $end
   $var wire 4 #t io_master_writeResp_bits_id $end
   $var wire 2 #y io_slave_0_writeAddr_bits_burst $end
   $var wire 1 #} clock $end
   $var wire 1 $! io_slave_0_writeAddr_valid $end
   $var wire 1 $# io_master_writeData_bits_last $end
   $var wire 1 $+ w_outstanding $end
   $var wire 3 $. write_addr_reg_size $end
   $var wire 3 $/ io_slave_0_writeAddr_bits_prot $end
   $var wire 1 $2 write_data_reg_valid $end
  $upscope $end
  $scope module writeMuxes_0.arbiter $end
  $upscope $end
  $scope module readMuxes_0 $end
   $var wire 4 % data_reg_id $end
   $var wire 1 0 io_in_0_readData_ready $end
   $var wire 2 @ io_out_readData_bits_resp $end
   $var wire 2 F io_in_0_readAddr_bits_size $end
   $var wire 32 J io_out_readData_bits_data $end
   $var wire 4 U io_out_readAddr_bits_qos $end
   $var wire 8 V io_out_readAddr_bits_len $end
   $var wire 4 [ io_out_readData_bits_id $end
   $var wire 4 _ address_reg_region $end
   $var wire 1 ` io_out_readAddr_valid $end
   $var wire 1 u clock $end
   $var wire 3 y io_out_readAddr_bits_prot $end
   $var wire 1 z address_reg_lock $end
   $var wire 1 { io_in_0_readAddr_bits_lock $end
   $var wire 1 "% io_in_0_readData_bits_last $end
   $var wire 4 "9 address_reg_id $end
   $var wire 4 "< address_reg_cache $end
   $var wire 1 "E io_in_0_readAddr_valid $end
   $var wire 4 "G io_in_0_readData_bits_id $end
   $var wire 2 "H io_out_readAddr_bits_burst $end
   $var wire 1 "J data_reg_last $end
   $var wire 4 "O io_out_readAddr_bits_id $end
   $var wire 32 "Q address_reg_addr $end
   $var wire 2 "[ io_in_0_readData_bits_resp $end
   $var wire 2 "^ data_reg_resp $end
   $var wire 1 "_ io_in_0_readData_valid $end
   $var wire 4 "h io_out_readAddr_bits_region $end
   $var wire 1 "i io_in_0_readAddr_ready $end
   $var wire 32 "k io_in_0_readData_bits_data $end
   $var wire 1 "q mask_0 $end
   $var wire 2 "x address_reg_size $end
   $var wire 2 "y address_reg_burst $end
   $var wire 4 "z io_in_0_readAddr_bits_cache $end
   $var wire 3 "{ address_reg_prot $end
   $var wire 4 "| address_reg_qos $end
   $var wire 8 "} address_reg_len $end
   $var wire 4 #& io_in_0_readAddr_bits_id $end
   $var wire 2 #( io_out_readAddr_bits_size $end
   $var wire 1 #* ar_determined $end
   $var wire 32 #+ io_out_readAddr_bits_addr $end
   $var wire 2 #= state $end
   $var wire 32 #C data_reg_data $end
   $var wire 1 #E io_out_readData_valid $end
   $var wire 3 #G io_in_0_readAddr_bits_prot $end
   $var wire 1 #J outstanding $end
   $var wire 1 #^ io_out_readData_ready $end
   $var wire 1 #e io_out_readAddr_ready $end
   $var wire 2 #g io_in_0_readAddr_bits_burst $end
   $var wire 1 #i io_out_readAddr_bits_lock $end
   $var wire 4 #j io_out_readAddr_bits_cache $end
   $var wire 1 #k arbiter $end
   $var wire 1 #l reset $end
   $var wire 1 #r io_out_readData_bits_last $end
   $var wire 32 #s io_in_0_readAddr_bits_addr $end
   $var wire 8 #w io_in_0_readAddr_bits_len $end
   $var wire 4 #x io_in_0_readAddr_bits_qos $end
   $var wire 4 #~ io_in_0_readAddr_bits_region $end
    $scope module arbiter $end
     $var wire 1 ' io_in_0_valid $end
     $var wire 1 "4 ctrl_1 $end
     $var wire 1 "u io_in_0_ready $end
     $var wire 1 #D io_out_ready $end
     $var wire 1 #] io_out_valid $end
     $var wire 1 #p grantMask_0 $end
     $var wire 1 $' validMask_0 $end
    $upscope $end
  $upscope $end
$upscope $end
$enddefinitions $end
$dumpvars
00
b0000 #F
b0000 "d
02
b0000 $)
b00000000000000000000000000000000 -
03
b00000000000000000000000000000000 ,
04
05
b0000 "h
b00 <
06
b00 :
b00000000 h
08
b0000 #N
b0000 #M
b0000 "o
b0000 #P
0;
b0000 $5
b0000 #V
b0000 $7
0A
b0000 "t
b0000 #U
b0000 $8
b00000000 |
b00 +
b0000 "z
b0000 #[
b0000 "|
0K
0M
b0000 #a
b0000 %
0R
b0000 #
0S
b0000 #j
0Y
b0000 *
b0000 #q
b0000 &
b0000 #t
0`
0a
0b
b0000 #x
0d
b0000 1
0e
b00000000 V
b0000 .
0f
b0000 #|
b0000 /
0g
b0000 #~
0j
0k
0l
b0000 9
0n
b0000 7
b00 #y
0r
0s
b00 #v
0t
b00 #u
0u
0z
0{
b00 #g
b00 "y
b00 "x
b00 #Y
b00 #X
b00 $9
b00 "v
0""
b00 $-
0"$
b00 $,
0"%
0"(
b00 $(
0")
0"+
b00 "l
0"/
b00 #O
b00 #:
0"2
0"3
b00 "[
0"4
0"5
0"6
b00000000 $*
0":
0";
b00 $%
0"=
b00 #=
0#!
b00 "^
0#"
0"B
0##
b00 "H
0"C
b000 y
0#%
0"E
0#'
b00 #(
0#)
0#*
0"J
0"K
0#,
0#-
b00000000 "}
b00000000 #b
0#2
0"R
0#3
0"S
0#4
0#5
0"V
0#7
0#8
0"X
0#9
0"Z
b00 #$
0"\
0"_
0#@
0$!
b000 m
0"`
0#A
0$"
0#B
0$#
0$$
0#D
b00000000 #w
0#E
0$&
0"e
0$'
0"g
b00000000 #{
0#I
0"i
0#J
0$+
b00 "1
0#L
0"m
b00 ~
b00 "-
0"n
0$0
b00 ",
0"p
0$2
0"q
0#R
b00000000000000000000000000000000 $1
0"r
0#S
0$4
b00 x
0"u
b00 v
b00000000000000000000000000000000 "s
b00000000000000000000000000000000 #T
0"w
b00000000000000000000000000000000 $3
b00000000000000000000000000000000 #Q
0#Z
b00 "!
b00000000000000000000000000000000 #H
b00 q
b00000000000000000000000000000000 "f
0#\
b00 p
b000 Q
0#]
0#^
b00000000000000000000000000000000 "k
0"~
0#_
b00000000000000000000000000000000 #K
0#`
0#c
0#d
0#e
0#f
0#h
0#i
0#k
b00000000000000000000000000000000 #W
0#l
0#m
b00000000000000000000000000000000 $6
0#n
0#o
0#p
b000 =
b00 c
0#r
b00 X
b00 W
b00000000000000000000000000000000 #s
b000 $
0#z
0#}
b00 F
b00 @
b00 E
b00 B
b00000000000000000000000000000000 "&
b00000000000000000000000000000000 "@
b00000000000000000000000000000000 "7
b00000000000000000000000000000000 "8
b00000000000000000000000000000000 #0
b00000000000000000000000000000000 #.
b00000000000000000000000000000000 "Q
b00000000000000000000000000000000 "P
b00000000000000000000000000000000 #+
b00000000000000000000000000000000 #?
b00000000000000000000000000000000 #C
b00000000000000000000000000000000 "W
b00000000 "M
b00000000 "U
b00000000000000000000000000000000 "#
b00000000 "c
b00000000 "b
b000 "]
b000 #G
b000 $.
b000 $/
b000 "j
b000 "{
b0000 D
b0000 "'
b0000 C
b0000 ?
b0000 "*
b0000 ".
b0000 H
b0000 I
b0000 G
b0000 T
b0000 U
b0000 P
b0000 "9
b00000000000000000000000000000000 w
b0000 N
b0000 O
b0000 \
b0000 ]
b0000 "<
b0000 Z
b0000 "?
b0000 [
b0000 ">
b0000 "A
b0000 #&
b00000000000000000000000000000000 J
b0000 "G
b0000 "F
b00000000000000000000000000000000 L
b0000 "I
b000 "0
b0000 ^
b0000 _
b0000 "L
b0000 "O
b0000 "N
b0000 i
b0000 #1
b00000000000000000000000000000000 >
b0000 #6
0!
b0000 "T
b000 "D
0"
b0000 "Y
b0000 #<
b0000 o
0'
b0000 #;
b000 #/
0(
b0000 #>
b0000 }
0)
b0000 "a
$end
#0
1#D
1#d
1"
1d
1e
1#)
1"i
1(
1#l
1$0
1"q
1#S
1"S
1r
1"4
1"u
1"V
16
18
1#\
1;
1#`
1#"
#1
1"5
1u
1g
1#}
1#o
#6
1"B
1#E
b10 c
0e
1"(
1#I
0g
0#l
b00000000000000010000001000000011 J
1K
0#o
b10 "1
b00000000000000001001000000000000 "s
1R
0r
0"5
0"V
b00000000000000001001000000000000 #W
0u
0#\
0#}
b00000001 |
b00000000000000010000001000000011 "@
#11
0"
1b
b010 "D
1"E
b00000000000000001001000000000000 #H
b10 F
1'
1g
1#J
1#o
10
b00000000000000001001000000000000 #s
b00000000000000001001000000000000 $6
1"5
b10 #v
1u
1#]
1#}
1#!
1$"
0#"
1#B
#16
b00000000000000000000000000000000 "s
b00 c
0"5
b00000000000000000000000000000000 #W
0u
0g
0#}
b00000000 |
0#o
b00 "1
#21
0"i
0#J
b00000000000000001001000000000000 $3
0"q
1"3
1"5
b10 "x
b10 #Y
0#]
1#^
0#!
1`
0#d
0"E
b10 #(
0'
1g
1#*
b00000000000000001001000000000000 #+
1#o
b00000000000000001001000000000000 "Q
1u
b01 #=
1#}
1"`
0#B
#26
0"5
0u
0g
0#}
0#o
#31
b00000000000000010000001000000011 #C
1g
b00000000000000010000001000000011 "k
1#o
1n
1#3
1S
1"5
1u
b00000000000000010000001000000011 "7
b00000000000000010000001000000011 "8
b10 #=
1#}
0#^
b00000000000000010000001000000011 #?
1"_
0"`
#36
1#4
1R
1#E
0"5
0u
0g
b00001100000011010000111000001111 J
0#}
0#o
b00001100000011010000111000001111 "@
1#r
#41
b00 F
1"i
1"q
b00000000000000000000000000000000 $6
0S
1"5
b00000000000000000000000000000000 "7
1#"
1#d
1"
0b
1g
1#o
0n
00
0#3
b00000000000000000000000000000000 #s
b00 #v
1u
b00 #=
1#}
b00000000000000000000000000000000 #?
0"_
0$"
#46
0"5
0u
0g
0#}
0#o
#51
0"
1b
b000 "D
1"E
b00000000000000000000000000000000 #H
1'
1g
1#J
1#o
10
1"5
1u
b00000000000000010000001000000011 "7
1#]
1#}
b00000000000000010000001000000011 #?
1#!
1$"
0#"
1#B
#56
0"5
0u
0g
0#}
0#o
#61
0#d
0"E
b00 #(
0'
1g
0"i
0#J
b00000000000000000000000000000000 #+
1#o
b00000000000000000000000000000000 "Q
b00000000000000000000000000000000 $3
0"q
1"5
1u
b00 "x
b00 #Y
b01 #=
0#]
1#}
1#^
0#!
1"`
0#B
#66
0"5
0u
0g
0#}
0#o
#71
1##
b00001100000011010000111000001111 #C
1#%
1"%
1g
1"J
b00001100000011010000111000001111 "k
1#o
1n
1#3
1S
1"5
1u
b00001100000011010000111000001111 "7
b00001100000011010000111000001111 "8
b10 #=
1#}
1"=
0#^
b00001100000011010000111000001111 #?
1"_
0"`
#76
0#4
0R
0#E
0"5
0u
0g
b00000000000000000000000000000000 J
0#}
0#o
b00000000000000000000000000000000 "@
0#r
#81
1#d
1"
0b
0#%
1g
1"i
1#o
0n
1"q
00
0#3
0S
1"5
1u
b00000000000000000000000000000000 "7
b00 #=
1#}
0"=
b00000000000000000000000000000000 #?
0"_
0$"
1#"
#86
0"5
0u
0g
0#}
0#o
#91
0"
1b
1#%
1"E
1'
1g
1#J
1#o
10
1"5
1u
b00001100000011010000111000001111 "7
1#]
1#}
1"=
b00001100000011010000111000001111 #?
1#!
1$"
0#"
1#B
#96
0"B
0"5
0#I
